{"items":[{"notice_id":"ffa81523fcaa462eb594f1b507f785aa","title":"AEGIS ASHORE MISSILE DEFENCE SYSTEM ROMANIA CMAV AND SRA","solicitation_number":"N6817126RN001","department":null,"sub_tier":null,"office":null,"posted_date":"2025-11-20T00:00:00","type":"Solicitation","base_type":"Solicitation","archive_type":"auto15","archive_date":"2026-01-06T00:00:00","type_of_set_aside_description":"No Set aside used","type_of_set_aside":"NONE","response_deadline":"2025-12-22T14:00:00","naics_code":"336611","classification_code":"J998","active":"Yes","award":null,"point_of_contact":[{"fax":"","type":"primary","email":"juan.c.tapia5.civ@us.navy.mil","phone":"00390815686408","title":null,"fullName":"Juan Carlos Tapia"},{"fax":"","type":"secondary","email":"Anna.guarino4.ln@us.navy.mil","phone":"0039815683573","title":null,"fullName":"ANNA GUARINO"}],"description":"<p>The requirement is to accomplish the Fiscal Year 26 (FY26) Selected Restrictive Availability (SRA), Work Package &#39;NAPL-501-26&#39;, and Continuous Maintenance Availability (CMAV), Work Package &#39;NAPL-008-26&#39;, for the U.S. AEGIS ASHORE MISSILE DEFENSE SYTEM (USAAMDS) ROMANIA, Host Nation 1 (HN1). USAAMDS is located aboard the Naval Support Facility in Deveselu, Romania.</p>\n","organization_type":"OFFICE","office_address":{"city":"FPO","state":"AE","zipcode":"09622-0050","countryCode":"USA"},"place_of_performance":{"city":{"code":"Deveselu","name":"Deveselu"},"country":{"code":"ROU","name":"ROMANIA"}},"additional_info_link":null,"ui_link":"https://sam.gov/workspace/contract/opp/ffa81523fcaa462eb594f1b507f785aa/view","links":[{"rel":"self","href":"https://api.sam.gov/prod/opportunities/v2/search?noticeid=ffa81523fcaa462eb594f1b507f785aa&limit=1"}],"resource_links":["https://sam.gov/api/prod/opps/v3/opportunities/resources/files/0fbf997afaa24a68a75ab7f3295d4561/download","https://sam.gov/api/prod/opps/v3/opportunities/resources/files/29cab7f1ea584ced895093e5a71fcebe/download","https://sam.gov/api/prod/opps/v3/opportunities/resources/files/56d57adcf6c6459f806a6b5bcf526c57/download","https://sam.gov/api/prod/opps/v3/opportunities/resources/files/62e260a426e746d9b25580f807749082/download","https://sam.gov/api/prod/opps/v3/opportunities/resources/files/64b6325f06d0444faee0e2d34c072186/download","https://sam.gov/api/prod/opps/v3/opportunities/resources/files/95086d74fbaf410a82c29cf195ad39e3/download"],"full_response":{"type":"Solicitation","award":null,"links":[{"rel":"self","href":"https://api.sam.gov/prod/opportunities/v2/search?noticeid=ffa81523fcaa462eb594f1b507f785aa&limit=1"}],"title":"AEGIS ASHORE MISSILE DEFENCE SYSTEM ROMANIA CMAV AND SRA","active":"Yes","uiLink":"https://sam.gov/workspace/contract/opp/ffa81523fcaa462eb594f1b507f785aa/view","baseType":"Solicitation","noticeId":"ffa81523fcaa462eb594f1b507f785aa","naicsCode":"336611","naicsCodes":["336611"],"postedDate":"2025-11-20","archiveDate":"2026-01-06","archiveType":"auto15","description":"https://api.sam.gov/prod/opportunities/v1/noticedesc?noticeid=ffa81523fcaa462eb594f1b507f785aa","officeAddress":{"city":"FPO","state":"AE","zipcode":"09622-0050","countryCode":"USA"},"resourceLinks":["https://sam.gov/api/prod/opps/v3/opportunities/resources/files/0fbf997afaa24a68a75ab7f3295d4561/download","https://sam.gov/api/prod/opps/v3/opportunities/resources/files/29cab7f1ea584ced895093e5a71fcebe/download","https://sam.gov/api/prod/opps/v3/opportunities/resources/files/56d57adcf6c6459f806a6b5bcf526c57/download","https://sam.gov/api/prod/opps/v3/opportunities/resources/files/62e260a426e746d9b25580f807749082/download","https://sam.gov/api/prod/opps/v3/opportunities/resources/files/64b6325f06d0444faee0e2d34c072186/download","https://sam.gov/api/prod/opps/v3/opportunities/resources/files/95086d74fbaf410a82c29cf195ad39e3/download"],"pointOfContact":[{"fax":"","type":"primary","email":"juan.c.tapia5.civ@us.navy.mil","phone":"00390815686408","title":null,"fullName":"Juan Carlos Tapia"},{"fax":"","type":"secondary","email":"Anna.guarino4.ln@us.navy.mil","phone":"0039815683573","title":null,"fullName":"ANNA GUARINO"}],"typeOfSetAside":"NONE","organizationType":"OFFICE","responseDeadLine":"2025-12-22T14:00:00+01:00","additionalInfoLink":null,"classificationCode":"J998","fullParentPathCode":"017.1700.NAVSUP.NAVSUP GLS.NAVSUP FLC SIGONELLA.N68171","fullParentPathName":"DEPT OF DEFENSE.DEPT OF THE NAVY.NAVSUP.NAVSUP GLOBAL LOGISTICS SUPPORT.NAVSUP FLC SIGONELLA.NAVSUP FLC SIGONELLA NAPLES OFFICE","placeOfPerformance":{"city":{"code":"Deveselu","name":"Deveselu"},"country":{"code":"ROU","name":"ROMANIA"}},"solicitationNumber":"N6817126RN001","typeOfSetAsideDescription":"No Set aside used"},"id":4,"created_at":"2025-11-20T21:16:39.552626","updated_at":"2025-11-20T23:14:08.501871"},{"notice_id":"fed5d58a1ff141cda2201eb94c1433cc","title":"J&A SPE4A726R0007","solicitation_number":"SPE4A726R0007","department":null,"sub_tier":null,"office":null,"posted_date":"2025-11-20T00:00:00","type":"Justification","base_type":"Justification","archive_type":"auto30","archive_date":"2025-12-20T00:00:00","type_of_set_aside_description":null,"type_of_set_aside":null,"response_deadline":null,"naics_code":null,"classification_code":"1560","active":"Yes","award":{"date":"2025-11-20","number":"SPE4A726D0086"},"point_of_contact":[{"fax":"","type":"primary","email":"ryan.loeffelholz@dla.mil","phone":"8042791452","title":null,"fullName":"Ryan Loeffelholz"}],"description":"<p>J&amp;A</p>\n","organization_type":"OFFICE","office_address":{"city":"RICHMOND","state":"VA","zipcode":"23237","countryCode":"USA"},"place_of_performance":{"zip":"06607","city":{"code":"8000","name":"Bridgeport"},"state":{"code":"CT","name":"Connecticut"},"country":{"code":"USA","name":"UNITED STATES"}},"additional_info_link":null,"ui_link":"https://sam.gov/workspace/contract/opp/fed5d58a1ff141cda2201eb94c1433cc/view","links":[{"rel":"self","href":"https://api.sam.gov/prod/opportunities/v2/search?noticeid=fed5d58a1ff141cda2201eb94c1433cc&limit=1"}],"resource_links":["https://sam.gov/api/prod/opps/v3/opportunities/resources/files/21d9ff477a8442fa9643ff6379aedbcf/download"],"full_response":{"type":"Justification","award":{"date":"2025-11-20","number":"SPE4A726D0086"},"links":[{"rel":"self","href":"https://api.sam.gov/prod/opportunities/v2/search?noticeid=fed5d58a1ff141cda2201eb94c1433cc&limit=1"}],"title":"J&A SPE4A726R0007","active":"Yes","uiLink":"https://sam.gov/workspace/contract/opp/fed5d58a1ff141cda2201eb94c1433cc/view","baseType":"Justification","noticeId":"fed5d58a1ff141cda2201eb94c1433cc","naicsCode":null,"naicsCodes":[],"postedDate":"2025-11-20","archiveDate":"2025-12-20","archiveType":"auto30","description":"https://api.sam.gov/prod/opportunities/v1/noticedesc?noticeid=fed5d58a1ff141cda2201eb94c1433cc","officeAddress":{"city":"RICHMOND","state":"VA","zipcode":"23237","countryCode":"USA"},"resourceLinks":["https://sam.gov/api/prod/opps/v3/opportunities/resources/files/21d9ff477a8442fa9643ff6379aedbcf/download"],"pointOfContact":[{"fax":"","type":"primary","email":"ryan.loeffelholz@dla.mil","phone":"8042791452","title":null,"fullName":"Ryan Loeffelholz"}],"typeOfSetAside":null,"organizationType":"OFFICE","responseDeadLine":null,"additionalInfoLink":null,"classificationCode":"1560","fullParentPathCode":"097.97AS.DLA AVIATION.DLA AV RICHMOND.SPE4A7","fullParentPathName":"DEPT OF DEFENSE.DEFENSE LOGISTICS AGENCY.DLA AVIATION.DLA AV RICHMOND.DLA AVIATION","placeOfPerformance":{"zip":"06607","city":{"code":"8000","name":"Bridgeport"},"state":{"code":"CT","name":"Connecticut"},"country":{"code":"USA","name":"UNITED STATES"}},"solicitationNumber":"SPE4A726R0007","typeOfSetAsideDescription":null},"id":9,"created_at":"2025-11-20T21:16:39.572164","updated_at":"2025-11-20T23:14:08.965843"},{"notice_id":"e2a9cc96bdc74b38b02fc6615dcb26df","title":"RFI - Executive, Administrative and Professional Support Services","solicitation_number":"","department":null,"sub_tier":null,"office":null,"posted_date":"2025-11-20T00:00:00","type":"Special Notice","base_type":"Special Notice","archive_type":"auto15","archive_date":"2025-12-27T00:00:00","type_of_set_aside_description":"No Set aside used","type_of_set_aside":"NONE","response_deadline":"2025-12-12T23:59:00","naics_code":"541611","classification_code":"R699","active":"Yes","award":null,"point_of_contact":[{"fax":"","type":"primary","email":"christopher.jones10@usdoj.gov","phone":"","title":null,"fullName":"Christopher Jones"},{"fax":"","type":"secondary","email":"julie.simpson@usdoj.gov","phone":"","title":null,"fullName":"Julie Simpson"}],"description":"<p><strong><u>20 NOVEMBER 2025 - Questions and Answers</u></strong></p>\n\n<p>Please see attachment named, &quot;RFI Questions and Answers for SAM&quot; for all answers to the questions received in response to the RFI.</p>\n\n<p>****************************************************************************************************************************************************</p>\n\n<p></p>\n\n<p>The United States Marshals Service (USMS) is issuing a request for information (RFI) on a potential requirement for Executive, Administrative and Professional Support services. At this time a decision has not been made on any set-asides, and the final NAICS code is still to be determined. Please see attachments for further information. All information is subject to change/modification and the USMS does not guarantee that a future solicitation and/or award will be made. The USMS will not reimburse any interested party for any expenses incurred in responding to this RFI.</p>\n","organization_type":"OFFICE","office_address":{"city":"LANDOVER","state":"MD","zipcode":"20785","countryCode":"USA"},"place_of_performance":{"zip":"22202","state":{"code":"VA","name":"Virginia"},"country":{"code":"USA","name":"UNITED STATES"}},"additional_info_link":null,"ui_link":"https://sam.gov/workspace/contract/opp/e2a9cc96bdc74b38b02fc6615dcb26df/view","links":[{"rel":"self","href":"https://api.sam.gov/prod/opportunities/v2/search?noticeid=e2a9cc96bdc74b38b02fc6615dcb26df&limit=1"}],"resource_links":null,"full_response":{"type":"Special Notice","award":null,"links":[{"rel":"self","href":"https://api.sam.gov/prod/opportunities/v2/search?noticeid=e2a9cc96bdc74b38b02fc6615dcb26df&limit=1"}],"title":"RFI - Executive, Administrative and Professional Support Services","active":"Yes","uiLink":"https://sam.gov/workspace/contract/opp/e2a9cc96bdc74b38b02fc6615dcb26df/view","baseType":"Special Notice","noticeId":"e2a9cc96bdc74b38b02fc6615dcb26df","naicsCode":"541611","naicsCodes":["541611"],"postedDate":"2025-11-20","archiveDate":"2025-12-27","archiveType":"auto15","description":"https://api.sam.gov/prod/opportunities/v1/noticedesc?noticeid=e2a9cc96bdc74b38b02fc6615dcb26df","officeAddress":{"city":"LANDOVER","state":"MD","zipcode":"20785","countryCode":"USA"},"resourceLinks":["https://sam.gov/api/prod/opps/v3/opportunities/resources/files/5ca5128bece045548647f2e085376e66/download","https://sam.gov/api/prod/opps/v3/opportunities/resources/files/9a6e95c5b1084c1c82f46055fcdec7b0/download","https://sam.gov/api/prod/opps/v3/opportunities/resources/files/e16d9d14e1fd429587780f8a8e481f4f/download","https://sam.gov/api/prod/opps/v3/opportunities/resources/files/f483a286bfd44d868468183171473e4b/download"],"pointOfContact":[{"fax":"","type":"primary","email":"christopher.jones10@usdoj.gov","phone":"","title":null,"fullName":"Christopher Jones"},{"fax":"","type":"secondary","email":"julie.simpson@usdoj.gov","phone":"","title":null,"fullName":"Julie Simpson"}],"typeOfSetAside":"NONE","organizationType":"OFFICE","responseDeadLine":"2025-12-12T23:59:00-05:00","additionalInfoLink":null,"classificationCode":"R699","fullParentPathCode":"015.1544.15M104","fullParentPathName":"JUSTICE, DEPARTMENT OF.US MARSHALS SERVICE.PROCUREMENT DIVISION, OSS","placeOfPerformance":{"zip":"22202","state":{"code":"VA","name":"Virginia"},"country":{"code":"USA","name":"UNITED STATES"}},"solicitationNumber":"","typeOfSetAsideDescription":"No Set aside used"},"id":33,"created_at":"2025-11-20T23:07:45.987863","updated_at":"2025-11-20T23:07:45.987870"},{"notice_id":"f2399ade277c4000afb7256d30542f17","title":"NGA Cost Assessment and Program Evaluation (CAPE) Contract","solicitation_number":"CAPE_20251120","department":null,"sub_tier":null,"office":null,"posted_date":"2025-11-20T00:00:00","type":"Special Notice","base_type":"Special Notice","archive_type":"auto15","archive_date":"2025-12-11T00:00:00","type_of_set_aside_description":"Total Small Business Set-Aside (FAR 19.5)","type_of_set_aside":"SBA","response_deadline":"2025-11-26T12:00:00","naics_code":"541611","classification_code":"R799","active":"Yes","award":null,"point_of_contact":[{"fax":"","type":"primary","email":"jennifer.f.jensen@nga.mil","phone":"","title":null,"fullName":"Jennifer Jensen"},{"fax":"","type":"secondary","email":"joylene.u.burton@nga.mil","phone":"","title":null,"fullName":"Joylene Burton"}],"description":"<p>The National Geospatial-Intelligence Agency (NGA) intends to issue a sole source modification to an existing contract with Technomics, Inc. under the authority of FAR 6.302-1 (a)(2)(iii) &ldquo;Only One responsible source and no other supplies or services will satisfy agency requirements&rdquo; to continue supporting the Cost Assessment and Program Evaluation (CAPE).&nbsp; This extension will enable NGA time to complete the follow-on effort competition and support a transition period to ensure no disruption to the current support. &nbsp;The Government has determined that Technomics, Inc. is the only sources reasonably available that has the current skills, experience, and TS/SCI clearance to continue to perform all functional areas. The sole source modification to the existing contract will provide NGA with the ability to provide independent and data driven assessments and program evaluations to drive NGA&rsquo;s future. &nbsp;These attributes provided by the current contractor are essential to NGA&rsquo;s logistics operations to ensure there are no gaps in mission until the follow-on contract competition is completed.</p>\n\n<p>The period of performance of the extension to the current contract will be for a total of 1-year.</p>\n\n<p>This is a special notice prepared in accordance with the format in Federal Acquisition Regulation (FAR) 5.2, Synopses of Proposed Contract Actions and is not a request for competitive proposals. A solicitation will not be posted. However, any firm that believes it can meet this requirement may give written notification to the Contract Specialist no later than 12:00 pm EST on 26 November 2025. Supporting evidence must be in sufficient detail to demonstrate the ability to comply with the requirement. Responses received will be evaluated; however, a determination by the Government to compete the proposed procurement based on the response to this notice is solely within the discretion of the Government.</p>\n","organization_type":"AGENCY","office_address":null,"place_of_performance":{"zip":"22150","state":{"code":"VA","name":"Virginia"},"country":{"code":"USA","name":"UNITED STATES"}},"additional_info_link":null,"ui_link":"https://sam.gov/workspace/contract/opp/f2399ade277c4000afb7256d30542f17/view","links":[{"rel":"self","href":"https://api.sam.gov/prod/opportunities/v2/search?noticeid=f2399ade277c4000afb7256d30542f17&limit=1"}],"resource_links":null,"full_response":{"type":"Special Notice","award":null,"links":[{"rel":"self","href":"https://api.sam.gov/prod/opportunities/v2/search?noticeid=f2399ade277c4000afb7256d30542f17&limit=1"}],"title":"NGA Cost Assessment and Program Evaluation (CAPE) Contract","active":"Yes","uiLink":"https://sam.gov/workspace/contract/opp/f2399ade277c4000afb7256d30542f17/view","baseType":"Special Notice","noticeId":"f2399ade277c4000afb7256d30542f17","naicsCode":"541611","naicsCodes":["541611"],"postedDate":"2025-11-20","archiveDate":"2025-12-11","archiveType":"auto15","description":"https://api.sam.gov/prod/opportunities/v1/noticedesc?noticeid=f2399ade277c4000afb7256d30542f17","officeAddress":null,"resourceLinks":null,"pointOfContact":[{"fax":"","type":"primary","email":"jennifer.f.jensen@nga.mil","phone":"","title":null,"fullName":"Jennifer Jensen"},{"fax":"","type":"secondary","email":"joylene.u.burton@nga.mil","phone":"","title":null,"fullName":"Joylene Burton"}],"typeOfSetAside":"SBA","organizationType":"AGENCY","responseDeadLine":"2025-11-26T12:00:00-05:00","additionalInfoLink":null,"classificationCode":"R799","fullParentPathCode":"097.97AB","fullParentPathName":"DEPT OF DEFENSE.NATIONAL GEOSPATIAL-INTELLIGENCE AGENCY (NGA)","placeOfPerformance":{"zip":"22150","state":{"code":"VA","name":"Virginia"},"country":{"code":"USA","name":"UNITED STATES"}},"solicitationNumber":"CAPE_20251120","typeOfSetAsideDescription":"Total Small Business Set-Aside (FAR 19.5)"},"id":32,"created_at":"2025-11-20T23:07:45.878924","updated_at":"2025-11-20T23:07:45.878929"},{"notice_id":"c1a26504de2f48348046ff696c4fc844","title":"53--BOLT,MACHINE","solicitation_number":"SPE4A626T116U","department":null,"sub_tier":null,"office":null,"posted_date":"2025-11-20T00:00:00","type":"Combined Synopsis/Solicitation","base_type":"Combined Synopsis/Solicitation","archive_type":"autocustom","archive_date":"2025-12-28T00:00:00","type_of_set_aside_description":"Total Small Business Set-Aside (FAR 19.5)","type_of_set_aside":"SBA","response_deadline":"2025-11-28T00:00:00","naics_code":"332722","classification_code":"53","active":"Yes","award":null,"point_of_contact":[{"fax":null,"type":"primary","email":"DibbsBSM@dla.mil","phone":null,"title":null,"fullName":"Questions regarding this solicitation should be emailed to the buyer listed in block 5 of the solicitation document which can be found under the Additional Information link.\nIf the Additional Information link does not work, please go to https://www.dibbs.bsm.dla.mil/Solicitations/ and type the solicitation number in the Global Search box.\n"}],"description":"Proposed procurement for NSN 5306016788274 BOLT,MACHINE:\nLine 0001 Qty 39     UI EA  Deliver To: W1A8 DLA DISTRIBUTION By: 0169 DAYS ADO\nThe solicitation is an RFQ and will be available at the link provided in this notice.  Hard copies of this solicitation are not available.  Digitized drawings and Military Specifications and Standards may be retrieved, or ordered, electronically.\nAll responsible sources may submit a quote which, if timely received, shall be considered.\nQuotes must be submitted electronically.\n","organization_type":"OFFICE","office_address":{"city":"RICHMOND","state":"VA","zipcode":"23237","countryCode":"USA"},"place_of_performance":null,"additional_info_link":null,"ui_link":"https://sam.gov/workspace/contract/opp/c1a26504de2f48348046ff696c4fc844/view","links":[{"rel":"self","href":"https://api.sam.gov/prod/opportunities/v2/search?noticeid=c1a26504de2f48348046ff696c4fc844&limit=1"}],"resource_links":null,"full_response":{"type":"Combined Synopsis/Solicitation","award":null,"links":[{"rel":"self","href":"https://api.sam.gov/prod/opportunities/v2/search?noticeid=c1a26504de2f48348046ff696c4fc844&limit=1"}],"title":"53--BOLT,MACHINE","active":"Yes","uiLink":"https://sam.gov/workspace/contract/opp/c1a26504de2f48348046ff696c4fc844/view","baseType":"Combined Synopsis/Solicitation","noticeId":"c1a26504de2f48348046ff696c4fc844","naicsCode":"332722","naicsCodes":["332722"],"postedDate":"2025-11-20","archiveDate":"2025-12-28","archiveType":"autocustom","description":"https://api.sam.gov/prod/opportunities/v1/noticedesc?noticeid=c1a26504de2f48348046ff696c4fc844","officeAddress":{"city":"RICHMOND","state":"VA","zipcode":"23237","countryCode":"USA"},"resourceLinks":null,"pointOfContact":[{"fax":null,"type":"primary","email":"DibbsBSM@dla.mil","phone":null,"title":null,"fullName":"Questions regarding this solicitation should be emailed to the buyer listed in block 5 of the solicitation document which can be found under the Additional Information link.\nIf the Additional Information link does not work, please go to https://www.dibbs.bsm.dla.mil/Solicitations/ and type the solicitation number in the Global Search box.\n"}],"typeOfSetAside":"SBA","organizationType":"OFFICE","responseDeadLine":"2025-11-28","additionalInfoLink":null,"classificationCode":"53","fullParentPathCode":"097.97AS.DLA AVIATION.DLA AV RICHMOND.SPE4A6","fullParentPathName":"DEPT OF DEFENSE.DEFENSE LOGISTICS AGENCY.DLA AVIATION.DLA AV RICHMOND.DLA AVIATION","placeOfPerformance":null,"solicitationNumber":"SPE4A626T116U","typeOfSetAsideDescription":"Total Small Business Set-Aside (FAR 19.5)"},"id":31,"created_at":"2025-11-20T23:03:44.796899","updated_at":"2025-11-20T23:03:44.796903"}],"total":40,"page":1,"limit":5,"pages":8}